{
    "meta": {
        "limit": 20,
        "next": "?limit=20&offset=20",
        "offset": 0,
        "previous": null,
        "total_count": 697241
    },
    "objects": [
        {
            "app_id": "fc491785fa909e85fbdb63a9b346fa6c",
            "archived": false,
            "attachments": {
                "form.xml": {
                    "content_type": "text/xml",
                    "length": 2559,
                    "url": "https://www.commcarehq.org/a/lwala-community-alliance/api/form/attachment/8be726da-f375-4806-a63b-2d42bde3b9d1/form.xml"
                }
            },
            "build_id": "ae0a7ece528546d694ede59ba4bfb3cc",
            "domain": "lwala-community-alliance",
            "edited_by_user_id": null,
            "edited_on": null,
            "form": {
                "#type": "data",
                "@name": "Update Household - Get",
                "@uiVersion": "1",
                "@version": "3233",
                "@xmlns": "http://openrosa.org/formdesigner/7bdbfcc02fd44260837d799d24051449",
                "Case_ID": "e4f8156f-8601-4624-9ebd-847e40de757c11",
                "Date": "2020-10-05",
                "Female_Head_Name": "",
                "Household_Information": {
                    "Active_Handwashing_Station": "Yes",
                    "Clothesline": "Yes",
                    "Drying_Rack": "Yes",
                    "Family_planning_method": "",
                    "Functional_Latrine": "Yes",
                    "ITNs": "Yes",
                    "Improved_Cooking_Method": "No",
                    "Kitchen_Garden": "Yes",
                    "Rubbish_Pit": "Yes",
                    "Treats_Drinking_Water": "Yes",
                    "WASH_Compliant": "Yes",
                    "WASH_Trained": "Yes",
                    "household_deaths": {
                        "deaths_in_past_6_months": "0"
                    }
                },
                "Household_Status": "Yes",
                "MOH_household_code_linked": "",
                "Male_Head_Name": "",
                "Name": "15679",
                "Source": "1",
                "case": {
                    "@case_id": "e4f8156f-8601-4624-9ebd-847e40de757c11",
                    "@date_modified": "2020-10-05T05:59:42.408000Z",
                    "@user_id": "a40d273b149b4287ab28bbed2b2d5524",
                    "@xmlns": "http://commcarehq.org/case/transaction/v2",
                    "update": {
                        "Active_Handwashing_Station": "Yes",
                        "Clothesline": "Yes",
                        "Drying_Rack": "Yes",
                        "Functional_Latrine": "Yes",
                        "ITNs": "Yes",
                        "Improved_Cooking_Method": "No",
                        "Kitchen_Garden": "Yes",
                        "Last_Visit": "2020-10-05",
                        "Name": "15679",
                        "Rubbish_Pit": "Yes",
                        "Treats_Drinking_Water": "Yes",
                        "WASH_Compliant": "Yes",
                        "WASH_Trained": "Yes"
                    }
                },
                "chw": "a031p00001mqyJrAAI",
                "meta": {
                    "@xmlns": "http://openrosa.org/jr/xforms",
                    "appVersion": "CommCare Android, version \"2.48.7\"(461473). App v3310. CommCare Version 2.48. Build 461473, built on: 2020-05-20",
                    "app_build_version": 3310,
                    "commcare_version": "2.48.7",
                    "deviceID": "commcare_6bbece88-3355-44a5-9562-2cbffdaaadfd",
                    "drift": "0",
                    "geo_point": null,
                    "instanceID": "8be726da-f375-4806-a63b-2d42bde3b9d1",
                    "location": {
                        "#text": "-0.9009438 34.6159844 0.0 4199.99",
                        "@xmlns": "http://commcarehq.org/xforms"
                    },
                    "timeEnd": "2020-10-05T05:59:42.408000Z",
                    "timeStart": "2020-10-05T05:58:58.176000Z",
                    "userID": "a40d273b149b4287ab28bbed2b2d5524",
                    "username": "test name"
                },
                "supervisor_visit": "none"
            },
            "id": "8be726da-f375-4806-a63b-2d42bde3b9d1",
            "indexed_on": "2020-10-05T06:00:46.832278",
            "initial_processing_complete": true,
            "is_phone_submission": true,
            "metadata": {
                "appVersion": "CommCare Android, version \"2.48.7\"(461473). App v3310. CommCare Version 2.48. Build 461473, built on: 2020-05-20",
                "app_build_version": 3310,
                "commcare_version": "2.48.7",
                "deviceID": "commcare_6bbece88-3355-44a5-9562-2cbffdaaadfd",
                "drift": "0",
                "geo_point": null,
                "instanceID": "8be726da-f375-4806-a63b-2d42bde3b9d1",
                "location": "-0.9009438 34.6159844 0.0 4199.99",
                "timeEnd": "2020-10-05T05:59:42.408000Z",
                "timeStart": "2020-10-05T05:58:58.176000Z",
                "userID": "a40d273b149b4287ab28bbed2b2d5524",
                "username": "test name"
            },
            "problem": null,
            "received_on": "2020-10-05T05:59:41.697705Z",
            "resource_uri": "",
            "server_modified_on": "2020-10-05T05:59:41.800242Z",
            "type": "data",
            "uiversion": "1",
            "version": "3233"
        },
        {
            "app_id": "fc491785fa909e85fbdb63a9b346fa6c",
            "archived": false,
            "attachments": {
                "form.xml": {
                    "content_type": "text/xml",
                    "length": 3916,
                    "url": "https://www.commcarehq.org/a/lwala-community-alliance/api/form/attachment/3add7db7-8d1d-4380-bb0a-f6079eaadaec/form.xml"
                }
            },
            "build_id": "ae0a7ece528546d694ede59ba4bfb3cc",
            "domain": "lwala-community-alliance",
            "edited_by_user_id": null,
            "edited_on": null,
            "form": {
                "#type": "data",
                "@name": "Submit Indicators",
                "@uiVersion": "1",
                "@version": "3310",
                "@xmlns": "http://openrosa.org/formdesigner/470F9FD9-B054-4F79-9BC3-03943C1CA1BD",
                "case": {
                    "@case_id": "9fb43618-4fc9-458b-a866-3bfeafbf2a6311",
                    "@date_modified": "2020-10-05T05:58:23.646000Z",
                    "@user_id": "a40d273b149b4287ab28bbed2b2d5524",
                    "@xmlns": "http://commcarehq.org/case/transaction/v2",
                    "create": {
                        "case_name": "test name",
                        "case_type": "Reporting",
                        "owner_id": "-"
                    },
                    "update": {
                        "chw_id": "",
                        "current_month": "2020-10",
                        "last_indicator_submission": "2020-10-05",
                        "number_households_enrolled": "62",
                        "number_households_visits": "0",
                        "owner_id": "43465cb4e9954016b24ae8dffddd77bc",
                        "percent_households_enrolled": "110.71428571428572",
                        "percent_households_visits": "0",
                        "percent_priority_households_visited": "",
                        "priority_households_visited": "0"
                    }
                },
                "chw_information": {
                    "chw_id": "",
                    "chw_name": "test name"
                },
                "chw_message": "OK",
                "commcare_usercase": {
                    "case": {
                        "@case_id": "c4957d140ee74765ad898935e3f7247f11",
                        "@date_modified": "2020-10-05T05:58:23.646000Z",
                        "@user_id": "a40d273b149b4287ab28bbed2b2d5524",
                        "@xmlns": "http://commcarehq.org/case/transaction/v2",
                        "update": {
                            "current_month": "2020-10",
                            "date_next_reset": "2020-10-27",
                            "month_name": "September",
                            "number_household_visits": "0",
                            "number_households_enrolled": "0",
                            "priority_households_visited": "0"
                        }
                    }
                },
                "household_metadata_indicators": {
                    "number_households_denominator": "56",
                    "number_households_enrolled": "62",
                    "number_households_visits": "0",
                    "percent_households_enrolled": "110.71428571428572",
                    "percent_households_visits": "0",
                    "percent_priority_households_visited": "",
                    "priority_household_denominator": "0",
                    "priority_households_visited": "0"
                },
                "last_indicator_submission": "2020-10-05",
                "meta": {
                    "@xmlns": "http://openrosa.org/jr/xforms",
                    "appVersion": "CommCare Android, version \"2.48.7\"(461473). App v3310. CommCare Version 2.48. Build 461473, built on: 2020-05-20",
                    "app_build_version": 3310,
                    "commcare_version": "2.48.7",
                    "deviceID": "commcare_6bbece88-3355-44a5-9562-2cbffdaaadfd",
                    "drift": "0",
                    "geo_point": null,
                    "instanceID": "3add7db7-8d1d-4380-bb0a-f6079eaadaec",
                    "location": {
                        "#text": "-0.9009438 34.6159844 0.0 4199.99",
                        "@xmlns": "http://commcarehq.org/xforms"
                    },
                    "timeEnd": "2020-10-05T05:58:23.646000Z",
                    "timeStart": "2020-10-05T05:58:20.227000Z",
                    "userID": "a40d273b149b4287ab28bbed2b2d5524",
                    "username": "rose.adachi"
                },
                "owner_id": "43465cb4e9954016b24ae8dffddd77bc",
                "reset_household_metadata_indicators": {
                    "number_households_enrolled": "0",
                    "number_households_visits": "0",
                    "priority_households_visited": "0"
                },
                "resubmission_warning": "OK",
                "set_dates": {
                    "current_month": "2020-10",
                    "current_month_month": "10",
                    "current_month_year": "2020",
                    "date_next_reset": "2020-10-27",
                    "month_name": "September",
                    "month_name_calculation": "10-27",
                    "old_month": "2020-10",
                    "prev_current_month": "2020-10",
                    "prev_date_next_reset": "2020-10-27"
                }
            },
            "id": "3add7db7-8d1d-4380-bb0a-f6079eaadaec111",
            "indexed_on": "2020-10-05T05:58:23.424008",
            "initial_processing_complete": true,
            "is_phone_submission": true,
            "metadata": {
                "appVersion": "CommCare Android, version \"2.48.7\"(461473). App v3310. CommCare Version 2.48. Build 461473, built on: 2020-05-20",
                "app_build_version": 3310,
                "commcare_version": "2.48.7",
                "deviceID": "commcare_6bbece88-3355-44a5-9562-2cbffdaaadfd",
                "drift": "0",
                "geo_point": null,
                "instanceID": "3add7db7-8d1d-4380-bb0a-f6079eaadaec",
                "location": "-0.9009438 34.6159844 0.0 4199.99",
                "timeEnd": "2020-10-05T05:58:23.646000Z",
                "timeStart": "2020-10-05T05:58:20.227000Z",
                "userID": "a40d273b149b4287ab28bbed2b2d5524",
                "username": "rose.adachi"
            },
            "problem": null,
            "received_on": "2020-10-05T05:58:23.065262Z",
            "resource_uri": "",
            "server_modified_on": "2020-10-05T05:58:23.187379Z",
            "type": "data",
            "uiversion": "1",
            "version": "3310"
        }
    ]
}